<svg width="100%" height="100%" viewBox="0 0 157 54" fill="" xmlns="http://www.w3.org/2000/svg">
<path d="M0.5 53.5V16.5V15.052C0.5 14.1422 0.775761 13.2538 1.29092 12.5039L8.19645 2.45192C9.03584 1.23007 10.4231 0.5 11.9055 0.5H156.5V39.3993C156.5 40.3363 156.208 41.2499 155.663 42.0127L148.814 51.6134C147.97 52.7973 146.605 53.5 145.151 53.5H0.5Z" fill="#16274A"/>
</svg>
