<svg width="100%" height="100%" viewBox="0 0 311 54" preserveAspectRatio="none" fill="transparent" xmlns="http://www.w3.org/2000/svg">
<path d="M0.5 53.5V16.5V15.052C0.5 14.1422 0.775761 13.2538 1.29092 12.5039L8.19645 2.45192C9.03584 1.23007 10.4231 0.5 11.9055 0.5H310V39.3993C310 40.3363 309.708 41.2499 309.163 42.0127L302.314 51.6134C301.47 52.7973 300.105 53.5 298.651 53.5H0.5Z" stroke="#16274A"/>
</svg>
